TP1 Analyse de données (avec tidyverse)
…
Run la selection ou la ligne courante : ctrl + enter

## Définition du répertoire de travail courant
setwd("C:/Users/user/Google Drive/Travail/Enseignement/ADD STID 2A/Codes R/Donnees")
#setwd("autre_chemin_sur_mon_pc_perso_par_exemple")

## Importation de la base de données
raw_db = read_csv2("Recensement_12.csv")

Ci-dessous notez que l'on utilise la fonction 'read_csv2' qui est l'équivalent du classique 'read.csv2', mais qui importe la base de données au format tibble au lieu du traditionnel dataframe. Ce format, plus pratique notamment pour la visualisation, est au centre de l'écriture en 'version tidyverse'. De plus, les fonctions du tidyverse utilisent traditionellement '_' au lieu de '.' comme séparateur, comme dans 'read_csv2'.

raw_db

## # A tibble: 599 x 12
##       X1   AGE SEXE  REGION STAT_MARI SAL_HOR SYNDICAT CATEGORIE NIV_ETUDES
##    <dbl> <dbl> <chr> <chr>  <chr>       <dbl> <chr>    <chr>     <chr>     
##  1     1    58 F     NE     C            13.2 non      Employe   BAC+3     
##  2     2    40 M     W      M            12.5 <NA>     Construc~ Sans dipl~
##  3     3    29 M     S      C            14   <NA>     Employe   BAC+2     
##  4     4    59 M     NE     D            10.6 <NA>     Transpor~ BAC       
##  5     5    51 M     W      M            13   <NA>     Transpor~ Sans dipl~
##  6     6    19 M     <NA>   C            NA   non      <NA>      <NA>      
##  7     7    64 F     S      M            19.6 <NA>     Producti~ BAC       
##  8     8    23 F     NE     C            13   <NA>     Professi~ BAC+3     
##  9     9    47 M     NW     M            20.1 oui      Construc~ BAC       
## 10    10    66 F     S      D            12.5 non      Employe   BAC       
## # ... with 589 more rows, and 3 more variables: NB_PERS <dbl>, NB_ENF <dbl>,
## #   REV_FOYER <chr>

On voit que le format tibble offre une visualisation des 10 premières lignes de la base de données, et sous le nom de chaque colonne, on peut voir le type de variables qu'elle contient ('chr' : character, 'dbl' : double, ...). On s'aperçoit ainsi facilement que la première colonne est inutile car elle vient probablement d'une sauvegarde non désirée des numéros de ligne. Ainsi, on peut supprimer cette variable avec la commande ci-dessous:

db = raw_db %>% select(- X1)

db

## # A tibble: 599 x 11
##      AGE SEXE  REGION STAT_MARI SAL_HOR SYNDICAT CATEGORIE NIV_ETUDES NB_PERS
##    <dbl> <chr> <chr>  <chr>       <dbl> <chr>    <chr>     <chr>        <dbl>
##  1    58 F     NE     C            13.2 non      Employe   BAC+3            2
##  2    40 M     W      M            12.5 <NA>     Construc~ Sans dipl~       2
##  3    29 M     S      C            14   <NA>     Employe   BAC+2            2
##  4    59 M     NE     D            10.6 <NA>     Transpor~ BAC              4
##  5    51 M     W      M            13   <NA>     Transpor~ Sans dipl~       8
##  6    19 M     <NA>   C            NA   non      <NA>      <NA>            NA
##  7    64 F     S      M            19.6 <NA>     Producti~ BAC              3
##  8    23 F     NE     C            13   <NA>     Professi~ BAC+3            2
##  9    47 M     NW     M            20.1 oui      Construc~ BAC              3
## 10    66 F     S      D            12.5 non      Employe   BAC              1
## # ... with 589 more rows, and 2 more variables: NB_ENF <dbl>, REV_FOYER <chr>
…
## [1] 0.619

5 %>% sin %>% exp %>% sqrt %>% round(digits = 3)

## [1] 0.619

Ces deux instructions donnent le même résultat, mais on voit que la deuxième est bien plus claire, se lit dans l'ordre 'naturel' d'application des fonctions, et évite des erreurs de parenthèses difficile à debugger. Notez également que lorsque la fonction n'a qu'un argument, les parenthèses sont optionnelles, on peut donc écrire exp ou exp() sans différence.

Enfin, tout l'intérêt du tidyverse vient de l'utilisation d'un nombre réduit de 'verbes' associés à des fonctions très courantes pour la manipulation des données. Voici une liste des verbes les plus courants et de leur effet:

select() : selectionne les variables passées en argument (ici on sélectionne les variables AGE et REGION)

db %>% select(AGE, REGION)

## # A tibble: 599 x 2
##      AGE REGION
##    <dbl> <chr> 
##  1    58 NE    
##  2    40 W     
##  3    29 S     
##  4    59 NE    
##  5    51 W     
##  6    19 <NA>  
##  7    64 S     
##  8    23 NE    
##  9    47 NW    
## 10    66 S     
## # ... with 589 more rows
…
mutate() : ajoute de nouvelles variables (ici on redéfinit la variale 'X1' qui indique le numéro de ligne) (la commande .before indique seulement avant quelle variable on doit positionner la nouvelle colonne)

db %>% mutate(X1 = 1:599, .before = AGE)

## # A tibble: 599 x 12
##       X1   AGE SEXE  REGION STAT_MARI SAL_HOR SYNDICAT CATEGORIE NIV_ETUDES
##    <int> <dbl> <chr> <chr>  <chr>       <dbl> <chr>    <chr>     <chr>     
##  1     1    58 F     NE     C            13.2 non      Employe   BAC+3     
##  2     2    40 M     W      M            12.5 <NA>     Construc~ Sans dipl~
##  3     3    29 M     S      C            14   <NA>     Employe   BAC+2     
##  4     4    59 M     NE     D            10.6 <NA>     Transpor~ BAC       
##  5     5    51 M     W      M            13   <NA>     Transpor~ Sans dipl~
##  6     6    19 M     <NA>   C            NA   non      <NA>      <NA>      
##  7     7    64 F     S      M            19.6 <NA>     Producti~ BAC       
##  8     8    23 F     NE     C            13   <NA>     Professi~ BAC+3     
##  9     9    47 M     NW     M            20.1 oui      Construc~ BAC       
## 10    10    66 F     S      D            12.5 non      Employe   BAC       
## # ... with 589 more rows, and 3 more variables: NB_PERS <dbl>, NB_ENF <dbl>,
## #   REV_FOYER <chr>

summarise() : résume le tibble en une seule ligne correspondant à la commande (ici on calcule la moyenne de la variable AGE)

db %>% summarise(Mean_age = mean(AGE))

## # A tibble: 1 x 1
##   Mean_age
##      <dbl>
## 1     41.8

arrange() : réorganise les lignes du tibble selon les valeurs d'une variable (ici on range par ordre croissant des âges)

db %>% arrange(AGE)

## # A tibble: 599 x 11
##      AGE SEXE  REGION STAT_MARI SAL_HOR SYNDICAT CATEGORIE NIV_ETUDES NB_PERS
##    <dbl> <chr> <chr>  <chr>       <dbl> <chr>    <chr>     <chr>        <dbl>
##  1    16 M     <NA>   C           NA    <NA>     Gestion ~ <NA>            NA
##  2    16 M     NE     C            8    <NA>     Producti~ Sans dipl~       4
##  3    17 F     NE     C            7.9  <NA>     Transpor~ Sans dipl~       5
##  4    17 F     W      C            9    <NA>     Transpor~ Sans dipl~       3
##  5    18 M     S      C           NA    <NA>     Transpor~ BAC              6
##  6    18 F     NE     C           NA    non      Professi~ <NA>             6
##  7    18 M     NE     C            8    non      Professi~ BAC              4
##  8    18 F     S      C            7.25 <NA>     Gestion ~ BAC              4
##  9    19 M     <NA>   C           NA    non      <NA>      <NA>            NA
## 10    19 F     NE     <NA>        NA    <NA>     Transpor~ <NA>            NA
## # ... with 589 more rows, and 2 more variables: NB_ENF <dbl>, REV_FOYER <chr>
…
var_suppr = db %>% is.na %>% colMeans %>% '*'(100) %>% '>'(70)

db_tidy = db %>% select_if( !var_suppr )

On veut effectuer un même filtrage sur les lignes maintenant. En pratique, le tidyverse sert aussi à éviter d'utiliser un trop grand nombre de noms de variables intermédiaires inutiles (raw_db, db, db_tidy, ...), en donnant directement une longue suite d'instructions pour nettoyer la base. C'est pourquoi en général nous n'utiliseront que le nom raw_db pour la base de données brute, telle qu'importée, et db, qui est un nom court et pratique, pour la base de données nettoyée sur laquelle les analyses sont effectuées. Ainsi, en appliquant tout d'un coup dans cet exemple:

row_suppr = db %>% is.na %>% rowMeans %>% '*'(100) %>% '>'(60)

db = raw_db %>% select( - X1 ) %>%
                select_if( !var_suppr) %>% 
                filter( !row_suppr )
db

## # A tibble: 570 x 10
##      AGE SEXE  REGION STAT_MARI SAL_HOR CATEGORIE NIV_ETUDES NB_PERS NB_ENF
##    <dbl> <chr> <chr>  <chr>       <dbl> <chr>     <chr>        <dbl>  <dbl>
##  1    58 F     NE     C           13.2  Employe   BAC+3            2      0
##  2    40 M     W      M           12.5  Construc~ Sans dipl~       2      0
##  3    29 M     S      C           14    Employe   BAC+2            2      0
##  4    59 M     NE     D           10.6  Transpor~ BAC              4      1
##  5    51 M     W      M           13    Transpor~ Sans dipl~       8      1
##  6    64 F     S      M           19.6  Producti~ BAC              3      0
##  7    23 F     NE     C           13    Professi~ BAC+3            2      0
##  8    47 M     NW     M           20.1  Construc~ BAC              3      0
##  9    66 F     S      D           12.5  Employe   BAC              1      0
## 10    26 M     NE     M            9.96 Gestion ~ BAC+2            3      0
## # ... with 560 more rows, and 1 more variable: REV_FOYER <chr>

Même s'il est bien sûr possible de spécifier à la main le nom des variables qualitatives et quantitatives, il est toujours préférable d'effectuer cette tâche automatiquement, surtout si on a un grand nombre de variables:

quali = db %>% select_if(is.character)
quali

## # A tibble: 570 x 6
##    SEXE  REGION STAT_MARI CATEGORIE                   NIV_ETUDES   REV_FOYER 
##    <chr> <chr>  <chr>     <chr>                       <chr>        <chr>     
##  1 F     NE     C         Employe                     BAC+3        40 - < 60 
##  2 M     W      M         Construction et Maintenance Sans diplome < 40      
##  3 M     S      C         Employe                     BAC+2        >= 100    
##  4 M     NE     D         Transports et Service       BAC          < 40      
##  5 M     W      M         Transports et Service       Sans diplome >= 100    
##  6 F     S      M         Production et Agriculture   BAC          60 - < 100
##  7 F     NE     C         Profession liberale         BAC+3        40 - < 60 
##  8 M     NW     M         Construction et Maintenance BAC          40 - < 60 
##  9 F     S      D         Employe                     BAC          < 40      
## 10 M     NE     M         Gestion et Vente            BAC+2        < 40      
## # ... with 560 more rows

quanti = db %>% select_if(is.double)
quanti

## # A tibble: 570 x 4
##      AGE SAL_HOR NB_PERS NB_ENF
##    <dbl>   <dbl>   <dbl>  <dbl>
##  1    58   13.2        2      0
##  2    40   12.5        2      0
##  3    29   14          2      0
##  4    59   10.6        4      1
##  5    51   13          8      1
##  6    64   19.6        3      0
##  7    23   13          2      0
##  8    47   20.1        3      0
##  9    66   12.5        1      0
## 10    26    9.96       3      0
## # ... with 560 more rows
…
