TP2 Analyse de données (avec tidyverse)
…
Exercice 4

Dans cet exercice, nous utilisons une base de données classique, nommée swiss, présente par défaut dans la version de base de R. Bien qu'il soit possible de l'utiliser telle quelle, on remarque que ce dataframe n'est pas au format tidy tel que définit dans le tidyverse : https://cran.r-project.org/web/packages/tidyr/vignettes/tidy-data.html . En effet, chaque ligne a un nom, et celui-ci devrait constituer plutôt une colonne du tableau. Ainsi, comme précédemment introduit, nous allons importer la base de données brute, puis créer une copie que l'on va mettre sous une forme correcte.

library(tidyverse)
library(gridExtra)
library(FactoMineR)

raw_db = swiss

db = raw_db %>% rownames_to_column(var = 'Province') %>% as_tibble
db

## # A tibble: 47 x 7
##    Province Fertility Agriculture Examination Education Catholic
##    <chr>        <dbl>       <dbl>       <int>     <int>    <dbl>
##  1 Courtel~      80.2        17            15        12     9.96
##  2 Delemont      83.1        45.1           6         9    84.8 
##  3 Franche~      92.5        39.7           5         5    93.4 
##  4 Moutier       85.8        36.5          12         7    33.8 
##  5 Neuvevi~      76.9        43.5          17        15     5.16
##  6 Porrent~      76.1        35.3           9         7    90.6 
##  7 Broye         83.8        70.2          16         7    92.8 
##  8 Glane         92.4        67.8          14         8    97.2 
##  9 Gruyere       82.4        53.3          12         7    97.7 
## 10 Sarine        82.9        45.2          16        13    91.4 
## # ... with 37 more rows, and 1 more variable: Infant.Mortality <dbl>
…
rm(list = ls())

Nous pouvons ensuite entamer une nouvelle analyse par la traditionelle importation des packages, des données et leur mise en forme. Nous utilisons ici la base de données decathlon inclue dans le package FactoMineR, regroupant les performances en compétition (JO et Décastar 2004) de différents athlètes dans les épreuves de décathlon.

library(tidyverse)
library(gridExtra)
library(FactoMineR)

data(decathlon) 
raw_db = decathlon

db = raw_db %>% rownames_to_column('Name') %>% as_tibble
db

## # A tibble: 41 x 14
##    Name  `100m` Long.jump Shot.put High.jump `400m` `110m.hurdle` Discus
##    <chr>  <dbl>     <dbl>    <dbl>     <dbl>  <dbl>         <dbl>  <dbl>
##  1 SEBR~   11.0      7.58     14.8      2.07   49.8          14.7   43.8
##  2 CLAY    10.8      7.4      14.3      1.86   49.4          14.0   50.7
##  3 KARP~   11.0      7.3      14.8      2.04   48.4          14.1   49.0
##  4 BERN~   11.0      7.23     14.2      1.92   48.9          15.0   40.9
##  5 YURK~   11.3      7.09     15.2      2.1    50.4          15.3   46.3
##  6 WARN~   11.1      7.6      14.3      1.98   48.7          14.2   41.1
##  7 ZSIV~   11.1      7.3      13.5      2.01   48.6          14.2   45.7
##  8 McMU~   10.8      7.31     13.8      2.13   49.9          14.4   44.4
##  9 MART~   11.6      6.81     14.6      1.95   50.1          14.9   47.6
## 10 HERNU   11.4      7.56     14.4      1.86   51.1          15.1   45.0
## # ... with 31 more rows, and 6 more variables: Pole.vault <dbl>,
## #   Javeline <dbl>, `1500m` <dbl>, Rank <int>, Points <int>, Competition <fct>
…
