TP3 Analyse de données (avec tidyverse)
…
Exercice 4

Dans cet exercice, nous utilisons la base de données très ((beaucoup ?) trop ?) classique iris, présente par défaut dans la version de base de R. Ce dataset regroupe un total de 150 iris de 3 espèces différentes (50 chacune) observées sur 4 variables relatives à leur pétales et sépales. La vraie classification étant connue d'avance, nous allons pouvoir tester nos méthodes de clustering, pour ensuite comparer les groupes obtenus automatiquement avec les vraies espèces d'iris. Les algorithmes de clustering sont des méthodes dites d'apprentissage non-supervisé, un sous-ensemble des méthodes d'apprentissage automatique (machine learning en anglais). Comme habituellement, importons packages et données, et visualisons les données brutes.

#rm(list = ls())
library(tidyverse)
library(gridExtra)
library(FactoMineR)

raw_db = iris %>% as_tibble

raw_db

## # A tibble: 150 x 5
##    Sepal.Length Sepal.Width Petal.Length Petal.Width Species
##           <dbl>       <dbl>        <dbl>       <dbl> <fct>  
##  1          5.1         3.5          1.4         0.2 setosa 
##  2          4.9         3            1.4         0.2 setosa 
##  3          4.7         3.2          1.3         0.2 setosa 
##  4          4.6         3.1          1.5         0.2 setosa 
##  5          5           3.6          1.4         0.2 setosa 
##  6          5.4         3.9          1.7         0.4 setosa 
##  7          4.6         3.4          1.4         0.3 setosa 
##  8          5           3.4          1.5         0.2 setosa 
##  9          4.4         2.9          1.4         0.2 setosa 
## 10          4.9         3.1          1.5         0.1 setosa 
## # ... with 140 more rows
…
